quartus/fifo/simulation/qsim/fifo.msim.vcd
$comment
	File created using the following command:
		vcd file fifo.msim.vcd -direction
$end
$date
	Sat Jun 02 19:36:51 2018
$end
$version
	ModelSim Version 10.3c
$end
$timescale
	1ps
$end

$scope module FIFOBuffer_vlg_vec_tst $end
$var reg 1 ! clk $end
$var reg 12 " data_in [11:0] $end
$var reg 1 # read_from_stack $end
$var reg 1 $ rst $end
$var reg 1 % write_to_stack $end
$var wire 1 & data_out [11] $end
$var wire 1 ' data_out [10] $end
$var wire 1 ( data_out [9] $end
$var wire 1 ) data_out [8] $end
$var wire 1 * data_out [7] $end
$var wire 1 + data_out [6] $end
$var wire 1 , data_out [5] $end
$var wire 1 - data_out [4] $end
$var wire 1 . data_out [3] $end
$var wire 1 / data_out [2] $end
$var wire 1 0 data_out [1] $end
$var wire 1 1 data_out [0] $end
$var wire 1 2 stack_empty $end
$var wire 1 3 stack_full $end
$var wire 1 4 stack_half_full $end
$var wire 1 5 sampler $end

$scope module i1 $end
$var wire 1 6 gnd $end
$var wire 1 7 vcc $end
$var wire 1 8 unknown $end
$var tri1 1 9 devclrn $end
$var tri1 1 : devpor $end
$var tri1 1 ; devoe $end
$var wire 1 < clk~input_o $end
$var wire 1 = clk~inputCLKENA0_outclk $end
$var wire 1 > write_to_stack~input_o $end
$var wire 1 ? rst~input_o $end
$var wire 1 @ comb~0_combout $end
$var wire 1 A write_ptr[0]~1_combout $end
$var wire 1 B write_ptr[1]~2_combout $end
$var wire 1 C stack_rtl_0_bypass[1]~feeder_combout $end
$var wire 1 D read_from_stack~input_o $end
$var wire 1 E always0~1_combout $end
$var wire 1 F ptr_gap[2]~0_combout $end
$var wire 1 G ptr_gap[0]~2_combout $end
$var wire 1 H ptr_gap[1]~3_combout $end
$var wire 1 I ptr_gap[3]~1_combout $end
$var wire 1 J read_ptr~1_combout $end
$var wire 1 K Equal1~0_combout $end
$var wire 1 L read_ptr~2_combout $end
$var wire 1 M stack~14_combout $end
$var wire 1 N data_in[0]~input_o $end
$var wire 1 O write_ptr[2]~0_combout $end
$var wire 1 P stack~15_combout $end
$var wire 1 Q stack~1_q $end
$var wire 1 R stack~0feeder_combout $end
$var wire 1 S stack~0_q $end
$var wire 1 T read_ptr~0_combout $end
$var wire 1 U stack~13_combout $end
$var wire 1 V always0~1_wirecell_combout $end
$var wire 1 W ~QUARTUS_CREATED_GND~I_combout $end
$var wire 1 X data_in[1]~input_o $end
$var wire 1 Y data_in[2]~input_o $end
$var wire 1 Z data_in[3]~input_o $end
$var wire 1 [ data_in[4]~input_o $end
$var wire 1 \ data_in[5]~input_o $end
$var wire 1 ] data_in[6]~input_o $end
$var wire 1 ^ data_in[7]~input_o $end
$var wire 1 _ data_in[8]~input_o $end
$var wire 1 ` data_in[9]~input_o $end
$var wire 1 a data_in[10]~input_o $end
$var wire 1 b data_in[11]~input_o $end
$var wire 1 c stack_rtl_0|auto_generated|ram_block1a0~portbdataout $end
$var wire 1 d data_out~0_combout $end
$var wire 1 e always0~0_combout $end
$var wire 1 f data_out[0]~reg0_q $end
$var wire 1 g stack~2_q $end
$var wire 1 h stack_rtl_0|auto_generated|ram_block1a1 $end
$var wire 1 i data_out~1_combout $end
$var wire 1 j data_out[1]~reg0_q $end
$var wire 1 k stack~3feeder_combout $end
$var wire 1 l stack~3_q $end
$var wire 1 m stack_rtl_0|auto_generated|ram_block1a2 $end
$var wire 1 n data_out~2_combout $end
$var wire 1 o data_out[2]~reg0_q $end
$var wire 1 p stack~4_q $end
$var wire 1 q stack_rtl_0|auto_generated|ram_block1a3 $end
$var wire 1 r data_out~3_combout $end
$var wire 1 s data_out[3]~reg0_q $end
$var wire 1 t stack~5feeder_combout $end
$var wire 1 u stack~5_q $end
$var wire 1 v stack_rtl_0_bypass[11]~feeder_combout $end
$var wire 1 w stack_rtl_0|auto_generated|ram_block1a4 $end
$var wire 1 x data_out~4_combout $end
$var wire 1 y data_out[4]~reg0_q $end
$var wire 1 z stack~6feeder_combout $end
$var wire 1 { stack~6_q $end
$var wire 1 | stack_rtl_0_bypass[12]~feeder_combout $end
$var wire 1 } stack_rtl_0|auto_generated|ram_block1a5 $end
$var wire 1 ~ data_out~5_combout $end
$var wire 1 !! data_out[5]~reg0_q $end
$var wire 1 "! stack~7_q $end
$var wire 1 #! stack_rtl_0|auto_generated|ram_block1a6 $end
$var wire 1 $! data_out~6_combout $end
$var wire 1 %! data_out[6]~reg0_q $end
$var wire 1 &! stack~8_q $end
$var wire 1 '! stack_rtl_0|auto_generated|ram_block1a7 $end
$var wire 1 (! data_out~7_combout $end
$var wire 1 )! data_out[7]~reg0_q $end
$var wire 1 *! stack~9feeder_combout $end
$var wire 1 +! stack~9_q $end
$var wire 1 ,! stack_rtl_0_bypass[15]~feeder_combout $end
$var wire 1 -! stack_rtl_0|auto_generated|ram_block1a8 $end
$var wire 1 .! data_out~8_combout $end
$var wire 1 /! data_out[8]~reg0_q $end
$var wire 1 0! stack~10_q $end
$var wire 1 1! stack_rtl_0|auto_generated|ram_block1a9 $end
$var wire 1 2! data_out~9_combout $end
$var wire 1 3! data_out[9]~reg0_q $end
$var wire 1 4! stack~11feeder_combout $end
$var wire 1 5! stack~11_q $end
$var wire 1 6! stack_rtl_0|auto_generated|ram_block1a10 $end
$var wire 1 7! stack_rtl_0_bypass[17]~feeder_combout $end
$var wire 1 8! data_out~10_combout $end
$var wire 1 9! data_out[10]~reg0_q $end
$var wire 1 :! stack~12feeder_combout $end
$var wire 1 ;! stack~12_q $end
$var wire 1 <! stack_rtl_0_bypass[18]~feeder_combout $end
$var wire 1 =! stack_rtl_0|auto_generated|ram_block1a11 $end
$var wire 1 >! data_out~11_combout $end
$var wire 1 ?! data_out[11]~reg0_q $end
$var wire 1 @! Equal0~0_combout $end
$var wire 1 A! ptr_gap [3] $end
$var wire 1 B! ptr_gap [2] $end
$var wire 1 C! ptr_gap [1] $end
$var wire 1 D! ptr_gap [0] $end
$var wire 1 E! stack_rtl_0_bypass [0] $end
$var wire 1 F! stack_rtl_0_bypass [1] $end
$var wire 1 G! stack_rtl_0_bypass [2] $end
$var wire 1 H! stack_rtl_0_bypass [3] $end
$var wire 1 I! stack_rtl_0_bypass [4] $end
$var wire 1 J! stack_rtl_0_bypass [5] $end
$var wire 1 K! stack_rtl_0_bypass [6] $end
$var wire 1 L! stack_rtl_0_bypass [7] $end
$var wire 1 M! stack_rtl_0_bypass [8] $end
$var wire 1 N! stack_rtl_0_bypass [9] $end
$var wire 1 O! stack_rtl_0_bypass [10] $end
$var wire 1 P! stack_rtl_0_bypass [11] $end
$var wire 1 Q! stack_rtl_0_bypass [12] $end
$var wire 1 R! stack_rtl_0_bypass [13] $end
$var wire 1 S! stack_rtl_0_bypass [14] $end
$var wire 1 T! stack_rtl_0_bypass [15] $end
$var wire 1 U! stack_rtl_0_bypass [16] $end
$var wire 1 V! stack_rtl_0_bypass [17] $end
$var wire 1 W! stack_rtl_0_bypass [18] $end
$var wire 1 X! write_ptr [2] $end
$var wire 1 Y! write_ptr [1] $end
$var wire 1 Z! write_ptr [0] $end
$var wire 1 [! read_ptr [2] $end
$var wire 1 \! read_ptr [1] $end
$var wire 1 ]! read_ptr [0] $end
$var wire 1 ^! stack_rtl_0|auto_generated|ram_block1a0_PORTBDATAOUT_bus [39] $end
$var wire 1 _! stack_rtl_0|auto_generated|ram_block1a0_PORTBDATAOUT_bus [38] $end
$var wire 1 `! stack_rtl_0|auto_generated|ram_block1a0_PORTBDATAOUT_bus [37] $end
$var wire 1 a! stack_rtl_0|auto_generated|ram_block1a0_PORTBDATAOUT_bus [36] $end
$var wire 1 b! stack_rtl_0|auto_generated|ram_block1a0_PORTBDATAOUT_bus [35] $end
$var wire 1 c! stack_rtl_0|auto_generated|ram_block1a0_PORTBDATAOUT_bus [34] $end
$var wire 1 d! stack_rtl_0|auto_generated|ram_block1a0_PORTBDATAOUT_bus [33] $end
$var wire 1 e! stack_rtl_0|auto_generated|ram_block1a0_PORTBDATAOUT_bus [32] $end
$var wire 1 f! stack_rtl_0|auto_generated|ram_block1a0_PORTBDATAOUT_bus [31] $end
$var wire 1 g! stack_rtl_0|auto_generated|ram_block1a0_PORTBDATAOUT_bus [30] $end
$var wire 1 h! stack_rtl_0|auto_generated|ram_block1a0_PORTBDATAOUT_bus [29] $end
$var wire 1 i! stack_rtl_0|auto_generated|ram_block1a0_PORTBDATAOUT_bus [28] $end
$var wire 1 j! stack_rtl_0|auto_generated|ram_block1a0_PORTBDATAOUT_bus [27] $end
$var wire 1 k! stack_rtl_0|auto_generated|ram_block1a0_PORTBDATAOUT_bus [26] $end
$var wire 1 l! stack_rtl_0|auto_generated|ram_block1a0_PORTBDATAOUT_bus [25] $end
$var wire 1 m! stack_rtl_0|auto_generated|ram_block1a0_PORTBDATAOUT_bus [24] $end
$var wire 1 n! stack_rtl_0|auto_generated|ram_block1a0_PORTBDATAOUT_bus [23] $end
$var wire 1 o! stack_rtl_0|auto_generated|ram_block1a0_PORTBDATAOUT_bus [22] $end
$var wire 1 p! stack_rtl_0|auto_generated|ram_block1a0_PORTBDATAOUT_bus [21] $end
$var wire 1 q! stack_rtl_0|auto_generated|ram_block1a0_PORTBDATAOUT_bus [20] $end
$var wire 1 r! stack_rtl_0|auto_generated|ram_block1a0_PORTBDATAOUT_bus [19] $end
$var wire 1 s! stack_rtl_0|auto_generated|ram_block1a0_PORTBDATAOUT_bus [18] $end
$var wire 1 t! stack_rtl_0|auto_generated|ram_block1a0_PORTBDATAOUT_bus [17] $end
$var wire 1 u! stack_rtl_0|auto_generated|ram_block1a0_PORTBDATAOUT_bus [16] $end
$var wire 1 v! stack_rtl_0|auto_generated|ram_block1a0_PORTBDATAOUT_bus [15] $end
$var wire 1 w! stack_rtl_0|auto_generated|ram_block1a0_PORTBDATAOUT_bus [14] $end
$var wire 1 x! stack_rtl_0|auto_generated|ram_block1a0_PORTBDATAOUT_bus [13] $end
$var wire 1 y! stack_rtl_0|auto_generated|ram_block1a0_PORTBDATAOUT_bus [12] $end
$var wire 1 z! stack_rtl_0|auto_generated|ram_block1a0_PORTBDATAOUT_bus [11] $end
$var wire 1 {! stack_rtl_0|auto_generated|ram_block1a0_PORTBDATAOUT_bus [10] $end
$var wire 1 |! stack_rtl_0|auto_generated|ram_block1a0_PORTBDATAOUT_bus [9] $end
$var wire 1 }! stack_rtl_0|auto_generated|ram_block1a0_PORTBDATAOUT_bus [8] $end
$var wire 1 ~! stack_rtl_0|auto_generated|ram_block1a0_PORTBDATAOUT_bus [7] $end
$var wire 1 !" stack_rtl_0|auto_generated|ram_block1a0_PORTBDATAOUT_bus [6] $end
$var wire 1 "" stack_rtl_0|auto_generated|ram_block1a0_PORTBDATAOUT_bus [5] $end
$var wire 1 #" stack_rtl_0|auto_generated|ram_block1a0_PORTBDATAOUT_bus [4] $end
$var wire 1 $" stack_rtl_0|auto_generated|ram_block1a0_PORTBDATAOUT_bus [3] $end
$var wire 1 %" stack_rtl_0|auto_generated|ram_block1a0_PORTBDATAOUT_bus [2] $end
$var wire 1 &" stack_rtl_0|auto_generated|ram_block1a0_PORTBDATAOUT_bus [1] $end
$var wire 1 '" stack_rtl_0|auto_generated|ram_block1a0_PORTBDATAOUT_bus [0] $end
$upscope $end
$upscope $end
$enddefinitions $end
#0
$dumpvars
0!
b0 "
0#
0$
0%
01
00
0/
0.
0-
0,
0+
0*
0)
0(
0'
0&
12
03
04
x5
06
17
x8
19
1:
1;
0<
0=
0>
0?
0@
0A
0B
0C
0D
0E
0F
0G
0H
0I
0J
1K
0L
0M
0N
0O
0P
0Q
1R
0S
0T
0U
1V
0W
0X
0Y
0Z
0[
0\
0]
0^
0_
0`
0a
0b
0c
0d
0e
0f
0g
0h
0i
0j
0k
0l
0m
0n
0o
0p
0q
0r
0s
0t
0u
0v
0w
0x
0y
0z
0{
0|
0}
0~
0!!
0"!
0#!
0$!
0%!
0&!
0'!
0(!
0)!
0*!
0+!
0,!
0-!
0.!
0/!
00!
01!
02!
03!
04!
05!
06!
07!
08!
09!
0:!
0;!
0<!
0=!
0>!
0?!
0@!
0D!
0C!
0B!
0A!
0W!
0V!
0U!
0T!
0S!
0R!
0Q!
0P!
0O!
0N!
0M!
0L!
0K!
0J!
0I!
0H!
0G!
0F!
0E!
0Z!
0Y!
0X!
0]!
0\!
0[!
0'"
0&"
0%"
0$"
0#"
0""
0!"
0~!
0}!
0|!
0{!
0z!
0y!
0x!
0w!
0v!
0u!
0t!
0s!
0r!
0q!
0p!
0o!
0n!
0m!
0l!
0k!
0j!
0i!
0h!
0g!
0f!
0e!
0d!
0c!
0b!
0a!
0`!
0_!
0^!
$end
#4000
1!
1%
1<
1>
05
1=
1P
1E
1A
1G
1@
0V
1S
#8000
b1 "
1#
0!
0%
1N
1D
0<
0>
15
0=
0P
0E
0A
0G
0@
1V
#12000
1!
1%
1<
1>
05
1=
1P
1A
1G
1@
1L!
#16000
b11 "
b10 "
0#
0!
0%
0N
1X
0D
0<
0>
15
0=
0P
0A
0G
0@
#20000
1!
1%
1<
1>
05
1=
1P
1E
1A
1G
1@
0V
1M!
0L!
#24000
b11 "
1#
0!
0%
1N
1D
0<
0>
15
0=
0P
0E
0A
0G
0@
1V
#28000
1!
1%
1<
1>
05
1=
1P
1A
1G
1@
1L!
#32000
b111 "
b101 "
b100 "
0#
0!
0%
0N
0X
1Y
0D
0<
0>
15
0=
0P
0A
0G
0@
1k
#36000
1!
1%
1<
1>
05
1=
1P
1E
1A
1G
1@
0V
1N!
0M!
0L!
#40000
b101 "
1#
0!
0%
1N
1D
0<
0>
15
0=
0P
0E
0A
0G
0@
1V
#44000
1!
1%
1<
1>
05
1=
1P
1A
1G
1@
1L!
#48000
b111 "
b110 "
0#
0!
0%
0N
1X
0D
0<
0>
15
0=
0P
0A
0G
0@
#52000
1!
1%
1<
1>
05
1=
1P
1E
1A
1G
1@
0V
1M!
0L!
#56000
b111 "
1#
0!
0%
1N
1D
0<
0>
15
0=
0P
0E
0A
0G
0@
1V
#60000
1!
1%
1<
1>
05
1=
1P
1A
1G
1@
1L!
#64000
b1111 "
b1011 "
b1001 "
b1000 "
0#
0!
0%
0N
0X
0Y
1Z
0D
0<
0>
15
0=
0P
0A
0G
0@
0k
#68000
1!
1%
1<
1>
05
1=
1P
1E
1A
1G
1@
0V
1O!
0N!
0M!
0L!
#72000
b1001 "
1#
0!
0%
1N
1D
0<
0>
15
0=
0P
0E
0A
0G
0@
1V
#76000
1!
1%
1<
1>
05
1=
1P
1A
1G
1@
1L!
#80000
b1011 "
b1010 "
0#
0!
0%
0N
1X
0D
0<
0>
15
0=
0P
0A
0G
0@
#84000
1!
1%
1<
1>
05
1=
1P
1E
1A
1G
1@
0V
1M!
0L!
#88000
b1011 "
1#
0!
0%
1N
1D
0<
0>
15
0=
0P
0E
0A
0G
0@
1V
#92000
1!
1%
1<
1>
05
1=
1P
1A
1G
1@
1L!
#96000
b1111 "
b1101 "
b1100 "
0#
0!
0%
0N
0X
1Y
0D
0<
0>
15
0=
0P
0A
0G
0@
1k
#100000
1!
1%
1<
1>
05
1=
1P
1E
1A
1G
1@
0V
1N!
0M!
0L!
#104000
b1101 "
1#
0!
0%
1N
1D
0<
0>
15
0=
0P
0E
0A
0G
0@
1V
#108000
1!
1%
1<
1>
05
1=
1P
1A
1G
1@
1L!
#112000
b1111 "
b1110 "
0#
0!
0%
0N
1X
0D
0<
0>
15
0=
0P
0A
0G
0@
#116000
1!
1%
1<
1>
05
1=
1P
1E
1A
1G
1@
0V
1M!
0L!
#120000
b1111 "
1#
0!
0%
1N
1D
0<
0>
15
0=
0P
0E
0A
0G
0@
1V
#124000
1!
1%
1<
1>
05
1=
1P
1A
1G
1@
1L!
#128000
b11111 "
b10111 "
b10011 "
b10001 "
b10000 "
0#
0!
0%
0N
0X
0Y
0Z
1[
0D
0<
0>
15
0=
0P
0A
0G
0@
1v
1t
0k
#132000
1!
1%
1<
1>
05
1=
1P
1E
1A
1G
1@
0V
1P!
0O!
0N!
0M!
0L!
#136000
b10001 "
1#
0!
0%
1N
1D
0<
0>
15
0=
0P
0E
0A
0G
0@
1V
#140000
1!
1%
1<
1>
05
1=
1P
1A
1G
1@
1L!
#144000
b10011 "
b10010 "
0#
0!
0%
0N
1X
0D
0<
0>
15
0=
0P
0A
0G
0@
#148000
1!
1%
1<
1>
05
1=
1P
1E
1A
1G
1@
0V
1M!
0L!
#152000
b10011 "
1#
0!
0%
1N
1D
0<
0>
15
0=
0P
0E
0A
0G
0@
1V
#156000
1!
1%
1<
1>
05
1=
1P
1A
1G
1@
1L!
#160000
b10111 "
b10101 "
b10100 "
0#
0!
0%
0N
0X
1Y
0D
0<
0>
15
0=
0P
0A
0G
0@
1k
#164000
1!
1%
1<
1>
05
1=
1P
1E
1A
1G
1@
0V
1N!
0M!
0L!
#168000
b10101 "
1#
0!
0%
1N
1D
0<
0>
15
0=
0P
0E
0A
0G
0@
1V
#172000
1!
1%
1<
1>
05
1=
1P
1A
1G
1@
1L!
#176000
b10111 "
b10110 "
0#
0!
0%
0N
1X
0D
0<
0>
15
0=
0P
0A
0G
0@
#180000
1!
1%
1<
1>
05
1=
1P
1E
1A
1G
1@
0V
1M!
0L!
#184000
b10111 "
1#
0!
0%
1N
1D
0<
0>
15
0=
0P
0E
0A
0G
0@
1V
#188000
1!
1%
1<
1>
05
1=
1P
1A
1G
1@
1L!
#192000
b11111 "
b11011 "
b11001 "
b11000 "
0#
0!
0%
0N
0X
0Y
1Z
0D
0<
0>
15
0=
0P
0A
0G
0@
0k
#196000
1!
1%
1<
1>
05
1=
1P
1E
1A
1G
1@
0V
1O!
0N!
0M!
0L!
#200000
b11001 "
1#
0!
0%
1N
1D
0<
0>
15
0=
0P
0E
0A
0G
0@
1V
#204000
1!
1%
1<
1>
05
1=
1P
1A
1G
1@
1L!
#208000
b11011 "
b11010 "
0#
0!
0%
0N
1X
0D
0<
0>
15
0=
0P
0A
0G
0@
#212000
1!
1%
1<
1>
05
1=
1P
1E
1A
1G
1@
0V
1M!
0L!
#216000
b11011 "
1#
0!
0%
1N
1D
0<
0>
15
0=
0P
0E
0A
0G
0@
1V
#220000
1!
1%
1<
1>
05
1=
1P
1A
1G
1@
1L!
#224000
b11111 "
b11101 "
b11100 "
0#
0!
0%
0N
0X
1Y
0D
0<
0>
15
0=
0P
0A
0G
0@
1k
#228000
1!
1%
1<
1>
05
1=
1P
1E
1A
1G
1@
0V
1N!
0M!
0L!
#232000
b11101 "
1#
0!
0%
1N
1D
0<
0>
15
0=
0P
0E
0A
0G
0@
1V
#236000
1!
1%
1<
1>
05
1=
1P
1A
1G
1@
1L!
#240000
b11111 "
b11110 "
0#
0!
0%
0N
1X
0D
0<
0>
15
0=
0P
0A
0G
0@
#244000
1!
1%
1<
1>
05
1=
1P
1E
1A
1G
1@
0V
1M!
0L!
#248000
b11111 "
1#
0!
0%
1N
1D
0<
0>
15
0=
0P
0E
0A
0G
0@
1V
#252000
1!
1%
1<
1>
05
1=
1P
1A
1G
1@
1L!
#256000
b111111 "
b101111 "
b100111 "
b100011 "
b100001 "
b100000 "
0#
0!
0%
0N
0X
0Y
0Z
0[
1\
0D
0<
0>
15
0=
0P
0A
0G
0@
1|
1z
0v
0t
0k
#260000
1!
1%
1<
1>
05
1=
1P
1E
1A
1G
1@
0V
1Q!
0P!
0O!
0N!
0M!
0L!
#264000
b100001 "
1#
0!
0%
1N
1D
0<
0>
15
0=
0P
0E
0A
0G
0@
1V
#268000
1!
1%
1<
1>
05
1=
1P
1A
1G
1@
1L!
#272000
b100011 "
b100010 "
0#
0!
0%
0N
1X
0D
0<
0>
15
0=
0P
0A
0G
0@
#276000
1!
1%
1<
1>
05
1=
1P
1E
1A
1G
1@
0V
1M!
0L!
#280000
b100011 "
1#
0!
0%
1N
1D
0<
0>
15
0=
0P
0E
0A
0G
0@
1V
#284000
1!
1%
1<
1>
05
1=
1P
1A
1G
1@
1L!
#288000
b100111 "
b100101 "
b100100 "
0#
0!
0%
0N
0X
1Y
0D
0<
0>
15
0=
0P
0A
0G
0@
1k
#292000
1!
1%
1<
1>
05
1=
1P
1E
1A
1G
1@
0V
1N!
0M!
0L!
#296000
b100101 "
1#
0!
0%
1N
1D
0<
0>
15
0=
0P
0E
0A
0G
0@
1V
#300000
1!
1%
1<
1>
05
1=
1P
1A
1G
1@
1L!
#304000
b100111 "
b100110 "
0#
0!
0%
0N
1X
0D
0<
0>
15
0=
0P
0A
0G
0@
#308000
1!
1%
1<
1>
05
1=
1P
1E
1A
1G
1@
0V
1M!
0L!
#312000
b100111 "
1#
0!
0%
1N
1D
0<
0>
15
0=
0P
0E
0A
0G
0@
1V
#316000
1!
1%
1<
1>
05
1=
1P
1A
1G
1@
1L!
#320000
b101111 "
b101011 "
b101001 "
b101000 "
0#
0!
0%
0N
0X
0Y
1Z
0D
0<
0>
15
0=
0P
0A
0G
0@
0k
#324000
1!
1%
1<
1>
05
1=
1P
1E
1A
1G
1@
0V
1O!
0N!
0M!
0L!
#328000
b101001 "
1#
0!
0%
1N
1D
0<
0>
15
0=
0P
0E
0A
0G
0@
1V
#332000
1!
1%
1<
1>
05
1=
1P
1A
1G
1@
1L!
#336000
b101011 "
b101010 "
0#
0!
0%
0N
1X
0D
0<
0>
15
0=
0P
0A
0G
0@
#340000
1!
1%
1<
1>
05
1=
1P
1E
1A
1G
1@
0V
1M!
0L!
#344000
b101011 "
1#
0!
0%
1N
1D
0<
0>
15
0=
0P
0E
0A
0G
0@
1V
#348000
1!
1%
1<
1>
05
1=
1P
1A
1G
1@
1L!
#352000
b101111 "
b101101 "
b101100 "
0#
0!
0%
0N
0X
1Y
0D
0<
0>
15
0=
0P
0A
0G
0@
1k
#356000
1!
1%
1<
1>
05
1=
1P
1E
1A
1G
1@
0V
1N!
0M!
0L!
#360000
b101101 "
1#
0!
0%
1N
1D
0<
0>
15
0=
0P
0E
0A
0G
0@
1V
#364000
1!
1%
1<
1>
05
1=
1P
1A
1G
1@
1L!
#368000
b101111 "
b101110 "
0#
0!
0%
0N
1X
0D
0<
0>
15
0=
0P
0A
0G
0@
#372000
1!
1%
1<
1>
05
1=
1P
1E
1A
1G
1@
0V
1M!
0L!
#376000
b101111 "
1#
0!
0%
1N
1D
0<
0>
15
0=
0P
0E
0A
0G
0@
1V
#380000
1!
1%
1<
1>
05
1=
1P
1A
1G
1@
1L!
#384000
b111111 "
b110111 "
b110011 "
b110001 "
b110000 "
0#
0!
0%
0N
0X
0Y
0Z
1[
0D
0<
0>
15
0=
0P
0A
0G
0@
1v
1t
0k
#388000
1!
1%
1<
1>
05
1=
1P
1E
1A
1G
1@
0V
1P!
0O!
0N!
0M!
0L!
#392000
b110001 "
1#
0!
0%
1N
1D
0<
0>
15
0=
0P
0E
0A
0G
0@
1V
#396000
1!
1%
1<
1>
05
1=
1P
1A
1G
1@
1L!
#400000
b110011 "
b110010 "
0#
0!
0%
0N
1X
0D
0<
0>
15
0=
0P
0A
0G
0@
#404000
1!
1%
1<
1>
05
1=
1P
1E
1A
1G
1@
0V
1M!
0L!
#408000
b110011 "
1#
0!
0%
1N
1D
0<
0>
15
0=
0P
0E
0A
0G
0@
1V
#412000
1!
1%
1<
1>
05
1=
1P
1A
1G
1@
1L!
#416000
b110111 "
b110101 "
b110100 "
0#
0!
0%
0N
0X
1Y
0D
0<
0>
15
0=
0P
0A
0G
0@
1k
#420000
1!
1%
1<
1>
05
1=
1P
1E
1A
1G
1@
0V
1N!
0M!
0L!
#424000
b110101 "
1#
0!
0%
1N
1D
0<
0>
15
0=
0P
0E
0A
0G
0@
1V
#428000
1!
1%
1<
1>
05
1=
1P
1A
1G
1@
1L!
#432000
b110111 "
b110110 "
0#
0!
0%
0N
1X
0D
0<
0>
15
0=
0P
0A
0G
0@
#436000
1!
1%
1<
1>
05
1=
1P
1E
1A
1G
1@
0V
1M!
0L!
#440000
b110111 "
1#
0!
0%
1N
1D
0<
0>
15
0=
0P
0E
0A
0G
0@
1V
#444000
1!
1%
1<
1>
05
1=
1P
1A
1G
1@
1L!
#448000
b111111 "
b111011 "
b111001 "
b111000 "
0#
0!
0%
0N
0X
0Y
1Z
0D
0<
0>
15
0=
0P
0A
0G
0@
0k
#452000
1!
1%
1<
1>
05
1=
1P
1E
1A
1G
1@
0V
1O!
0N!
0M!
0L!
#456000
b111001 "
1#
0!
0%
1N
1D
0<
0>
15
0=
0P
0E
0A
0G
0@
1V
#460000
1!
1%
1<
1>
05
1=
1P
1A
1G
1@
1L!
#464000
b111011 "
b111010 "
0#
0!
0%
0N
1X
0D
0<
0>
15
0=
0P
0A
0G
0@
#468000
1!
1%
1<
1>
05
1=
1P
1E
1A
1G
1@
0V
1M!
0L!
#472000
b111011 "
1#
0!
0%
1N
1D
0<
0>
15
0=
0P
0E
0A
0G
0@
1V
#476000
1!
1%
1<
1>
05
1=
1P
1A
1G
1@
1L!
#480000
b111111 "
b111101 "
b111100 "
0#
0!
0%
0N
0X
1Y
0D
0<
0>
15
0=
0P
0A
0G
0@
1k
#484000
1!
1%
1<
1>
05
1=
1P
1E
1A
1G
1@
0V
1N!
0M!
0L!
#488000
b111101 "
1#
0!
0%
1N
1D
0<
0>
15
0=
0P
0E
0A
0G
0@
1V
#492000
1!
1%
1<
1>
05
1=
1P
1A
1G
1@
1L!
#496000
b111111 "
b111110 "
0#
0!
0%
0N
1X
0D
0<
0>
15
0=
0P
0A
0G
0@
#500000
1!
1%
1<
1>
05
1=
1P
1E
1A
1G
1@
0V
1M!
0L!
#504000
b111111 "
1#
0!
0%
1N
1D
0<
0>
15
0=
0P
0E
0A
0G
0@
1V
#508000
1!
1%
1<
1>
05
1=
1P
1A
1G
1@
1L!
#512000
b1111111 "
b1011111 "
b1001111 "
b1000111 "
b1000011 "
b1000001 "
b1000000 "
0#
0!
0%
0N
0X
0Y
0Z
0[
0\
1]
0D
0<
0>
15
0=
0P
0A
0G
0@
0|
0z
0v
0t
0k
#516000
1!
1%
1<
1>
05
1=
1P
1E
1A
1G
1@
0V
1R!
0Q!
0P!
0O!
0N!
0M!
0L!
#520000
b1000001 "
1#
0!
0%
1N
1D
0<
0>
15
0=
0P
0E
0A
0G
0@
1V
#524000
1!
1%
1<
1>
05
1=
1P
1A
1G
1@
1L!
#528000
b1000011 "
b1000010 "
0#
0!
0%
0N
1X
0D
0<
0>
15
0=
0P
0A
0G
0@
#532000
1!
1%
1<
1>
05
1=
1P
1E
1A
1G
1@
0V
1M!
0L!
#536000
b1000011 "
1#
0!
0%
1N
1D
0<
0>
15
0=
0P
0E
0A
0G
0@
1V
#540000
1!
1%
1<
1>
05
1=
1P
1A
1G
1@
1L!
#544000
b1000111 "
b1000101 "
b1000100 "
0#
0!
0%
0N
0X
1Y
0D
0<
0>
15
0=
0P
0A
0G
0@
1k
#548000
1!
1%
1<
1>
05
1=
1P
1E
1A
1G
1@
0V
1N!
0M!
0L!
#552000
b1000101 "
1#
0!
0%
1N
1D
0<
0>
15
0=
0P
0E
0A
0G
0@
1V
#556000
1!
1%
1<
1>
05
1=
1P
1A
1G
1@
1L!
#560000
b1000111 "
b1000110 "
0#
0!
0%
0N
1X
0D
0<
0>
15
0=
0P
0A
0G
0@
#564000
1!
1%
1<
1>
05
1=
1P
1E
1A
1G
1@
0V
1M!
0L!
#568000
b1000111 "
1#
0!
0%
1N
1D
0<
0>
15
0=
0P
0E
0A
0G
0@
1V
#572000
1!
1%
1<
1>
05
1=
1P
1A
1G
1@
1L!
#576000
b1001111 "
b1001011 "
b1001001 "
b1001000 "
0#
0!
0%
0N
0X
0Y
1Z
0D
0<
0>
15
0=
0P
0A
0G
0@
0k
#580000
1!
1%
1<
1>
05
1=
1P
1E
1A
1G
1@
0V
1O!
0N!
0M!
0L!
#584000
b1001001 "
1#
0!
0%
1N
1D
0<
0>
15
0=
0P
0E
0A
0G
0@
1V
#588000
1!
1%
1<
1>
05
1=
1P
1A
1G
1@
1L!
#592000
b1001011 "
b1001010 "
0#
0!
0%
0N
1X
0D
0<
0>
15
0=
0P
0A
0G
0@
#596000
1!
1%
1<
1>
05
1=
1P
1E
1A
1G
1@
0V
1M!
0L!
#600000
b1001011 "
1#
0!
0%
1N
1D
0<
0>
15
0=
0P
0E
0A
0G
0@
1V
#604000
1!
1%
1<
1>
05
1=
1P
1A
1G
1@
1L!
#608000
b1001111 "
b1001101 "
b1001100 "
0#
0!
0%
0N
0X
1Y
0D
0<
0>
15
0=
0P
0A
0G
0@
1k
#612000
1!
1%
1<
1>
05
1=
1P
1E
1A
1G
1@
0V
1N!
0M!
0L!
#616000
b1001101 "
1#
0!
0%
1N
1D
0<
0>
15
0=
0P
0E
0A
0G
0@
1V
#620000
1!
1%
1<
1>
05
1=
1P
1A
1G
1@
1L!
#624000
b1001111 "
b1001110 "
0#
0!
0%
0N
1X
0D
0<
0>
15
0=
0P
0A
0G
0@
#628000
1!
1%
1<
1>
05
1=
1P
1E
1A
1G
1@
0V
1M!
0L!
#632000
b1001111 "
1#
0!
0%
1N
1D
0<
0>
15
0=
0P
0E
0A
0G
0@
1V
#636000
1!
1%
1<
1>
05
1=
1P
1A
1G
1@
1L!
#640000
b1011111 "
b1010111 "
b1010011 "
b1010001 "
b1010000 "
0#
0!
0%
0N
0X
0Y
0Z
1[
0D
0<
0>
15
0=
0P
0A
0G
0@
1v
1t
0k
#644000
1!
1%
1<
1>
05
1=
1P
1E
1A
1G
1@
0V
1P!
0O!
0N!
0M!
0L!
#648000
b1010001 "
1#
0!
0%
1N
1D
0<
0>
15
0=
0P
0E
0A
0G
0@
1V
#652000
1!
1%
1<
1>
05
1=
1P
1A
1G
1@
1L!
